Descriptives
…
Country

country_absolute = as.data.frame(table(data_included_documented$country))

country_freq = as.data.frame(round((table(data_included_documented$country)/n)*100,2))

country = left_join(country_absolute, country_freq, by = "Var1")
country

## # A tibble: 144 x 3
##    Var1                Freq.x Freq.y
##    <fct>                <int>  <dbl>
##  1 Afghanistan              1   0.01
##  2 Albania                  2   0.02
##  3 Algeria                  7   0.05
##  4 Andorra                  6   0.05
##  5 Antigua and Barbuda      2   0.02
##  6 Argentina              217   1.64
##  7 Armenia                  2   0.02
##  8 Aruba                    1   0.01
##  9 Australia              133   1   
## 10 Austria                197   1.49
## # ... with 134 more rows
…
