09_analyses_exploratory
…
Data

Load selected data based on 03_codebook

data_included_documented = read.csv(file = "data_included_documented.csv")[,-1]

Inclusion of data

countries = as.data.frame(table(data_included_documented$country)) %>%
  arrange(-Freq)

countries

## # A tibble: 144 x 2
##    Var1                      Freq
##    <fct>                    <int>
##  1 France                    2013
##  2 Germany                   1846
##  3 United States of America  1254
##  4 Mexico                    1157
##  5 Italy                      968
##  6 Brazil                     806
##  7 Spain                      562
##  8 United Kingdom             499
##  9 Denmark                    395
## 10 Colombia                   387
## # ... with 134 more rows
…
