Exploratory Analyses Regions
…
regions = regions %>% filter(participants > 500)
data_included_documented_reg = data_included_documented %>%
  filter(region_final %in% regions$region_final)

regions_reg =
  data_included_documented_reg %>%
  select(region_final, country) %>%
  table() %>%
  as.data.frame() %>%
  filter(Freq != 0) %>%
  arrange(-Freq)

regions_reg

## # A tibble: 94 × 3
##    region_final          country                   Freq
##    <fct>                 <fct>                    <int>
##  1 Europe                France                    2013
##  2 Europe                Germany                   1846
##  3 North America         United States of America  1254
##  4 Latin & South America Mexico                    1157
##  5 Europe                Italy                      968
##  6 Latin & South America Brazil                     806
##  7 Europe                Spain                      562
##  8 Europe                United Kingdom             499
##  9 Europe                Denmark                    395
## 10 Latin & South America Colombia                   387
## # ℹ 84 more rows
…
